<?xml version="1.0" encoding="UTF-8" standalone="no"?>
<!-- Created with Inkscape (http://www.inkscape.org/) -->

<svg
   xmlns:dc="http://purl.org/dc/elements/1.1/"
   xmlns:cc="http://creativecommons.org/ns#"
   xmlns:rdf="http://www.w3.org/1999/02/22-rdf-syntax-ns#"
   xmlns:svg="http://www.w3.org/2000/svg"
   xmlns="http://www.w3.org/2000/svg"
   xmlns:sodipodi="http://sodipodi.sourceforge.net/DTD/sodipodi-0.dtd"
   xmlns:inkscape="http://www.inkscape.org/namespaces/inkscape"
   width="989.37842"
   height="453.4003"
   viewBox="0 0 989.37845 453.40032"
   id="svg2"
   version="1.1"
   inkscape:version="0.92.3 (2405546, 2018-03-11)"
   sodipodi:docname="cyto-logo_master.svg"
   inkscape:export-filename="/home/casado/Downloads/cyto_logo.png"
   inkscape:export-xdpi="200"
   inkscape:export-ydpi="200">
  <defs
     id="defs4" />
  <sodipodi:namedview
     id="base"
     pagecolor="#ffffff"
     bordercolor="#666666"
     borderopacity="1.0"
     inkscape:pageopacity="0"
     inkscape:pageshadow="2"
     inkscape:zoom="0.8108793"
     inkscape:cx="450.43847"
     inkscape:cy="42.15454"
     inkscape:document-units="px"
     inkscape:current-layer="g3023"
     showgrid="false"
     inkscape:window-width="1920"
     inkscape:window-height="976"
     inkscape:window-x="0"
     inkscape:window-y="0"
     inkscape:window-maximized="1"
     fit-margin-top="2"
     fit-margin-left="2"
     fit-margin-right="2"
     fit-margin-bottom="2"
     units="px"
     showguides="false" />
  <metadata
     id="metadata7">
    <rdf:RDF>
      <cc:Work
         rdf:about="">
        <dc:format>image/svg+xml</dc:format>
        <dc:type
           rdf:resource="http://purl.org/dc/dcmitype/StillImage" />
        <dc:title />
      </cc:Work>
    </rdf:RDF>
  </metadata>
  <g
     inkscape:label="Layer 1"
     inkscape:groupmode="layer"
     id="layer1"
     transform="translate(-33.26903,-11.2766)">
    <g
       id="g4177">
      <g
         id="g3023"
         transform="translate(224.08024,-244.13682)">
        <g
           id="g4242"
           transform="translate(0,-2.6145361e-5)"
           inkscape:export-filename="/home/casado/Downloads/cyto_logo_text.png"
           inkscape:export-xdpi="200"
           inkscape:export-ydpi="200">
          <g
             inkscape:export-ydpi="200"
             inkscape:export-xdpi="200"
             inkscape:export-filename="/home/casado/Downloads/cyto_logo_text.png"
             transform="matrix(0.59895624,0,0,0.59895624,586.32193,343.39256)"
             id="g4218">
            <path
               inkscape:connector-curvature="0"
               id="path4175-9-8-8-5"
               d="m -1006.8788,-43.329485 c -17.772,-8.0773 -37.509,-12.5625 -58.2813,-12.5625 -77.8822,0 -141.1562,63.260705 -141.1562,141.125016 0,77.864309 63.274,141.125019 141.1562,141.125019 20.772,0 40.5095,-4.4844 58.2813,-12.5625 l -26.4712,-28.19257 c -10.6908,3.4008 -24.3424,4.99459 -36.1702,4.99459 -61.6484,0 -101.4989,-41.11596 -101.0357,-102.748465 0.5812,-77.321311 32.4398,-109.588916 94.0595,-111.468716 13.1951,-0.4026 32.1413,2.54855 42.9137,5.18145 z"
               style="color:#000000;font-style:normal;font-variant:normal;font-weight:normal;font-stretch:normal;font-size:medium;line-height:normal;font-family:Sans;-inkscape-font-specification:Sans;text-indent:0;text-align:start;text-decoration:none;text-decoration-line:none;letter-spacing:normal;word-spacing:normal;text-transform:none;direction:ltr;block-progression:tb;writing-mode:lr-tb;baseline-shift:baseline;text-anchor:start;display:inline;overflow:visible;visibility:visible;fill:#eb6000;fill-opacity:1;stroke:none;stroke-width:40;marker:none;enable-background:accumulate"
               sodipodi:nodetypes="csssccssscc" />
            <path
               inkscape:connector-curvature="0"
               id="path4175-9-2"
               d="m -938.94131,275.98305 -36.75001,-33.6563 c -26.36838,15.0219 -56.90708,23.5938 -89.46878,23.5938 -99.937,0 -181.5009,-80.77631 -180.75,-180.687514 0.9421,-125.344116 80.8595,-177.671316 180.75,-180.718716 37.4703,-1.1432 68.8486,5.8555 94.37504,18.9374 l 31.65625,-29.125 c -36.15969,-23.92611 -79.48409,-37.87501 -126.03129,-37.87501 -126.2532,0 -228.8438,102.52591 -228.8438,228.750026 0,126.224314 102.5906,228.812614 228.8438,228.812614 46.6276,0 90.02148,-14.0263 126.21879,-38.0313 z"
               style="color:#000000;font-style:normal;font-variant:normal;font-weight:normal;font-stretch:normal;font-size:medium;line-height:normal;font-family:Sans;-inkscape-font-specification:Sans;text-indent:0;text-align:start;text-decoration:none;text-decoration-line:none;letter-spacing:normal;word-spacing:normal;text-transform:none;direction:ltr;block-progression:tb;writing-mode:lr-tb;baseline-shift:baseline;text-anchor:start;display:inline;overflow:visible;visibility:visible;fill:#eb6000;fill-opacity:1;fill-rule:nonzero;stroke:none;stroke-width:40;marker:none;enable-background:accumulate"
               sodipodi:nodetypes="ccsssccsssc" />
            <circle
               style="fill:#ffb546;fill-opacity:1;fill-rule:evenodd;stroke:none;stroke-width:1px;stroke-linecap:butt;stroke-linejoin:miter;stroke-opacity:1"
               id="path4163-7"
               cx="-1074.2045"
               cy="85.233032"
               r="38.230106" />
          </g>
          <text
             inkscape:export-ydpi="200"
             inkscape:export-xdpi="200"
             inkscape:export-filename="/home/casado/Downloads/cyto_logo_text.png"
             id="text4139"
             y="523.05725"
             x="52.548088"
             style="font-style:normal;font-weight:normal;line-height:0%;font-family:sans-serif;letter-spacing:16.3936882px;word-spacing:0px;fill:#000000;fill-opacity:1;stroke:none;stroke-width:1px;stroke-linecap:butt;stroke-linejoin:miter;stroke-opacity:1"
             xml:space="preserve"><tspan
               style="font-style:normal;font-variant:normal;font-weight:300;font-stretch:normal;font-size:350.66738892px;line-height:1.25;font-family:Lovelo;-inkscape-font-specification:'Lovelo Light'"
               y="523.05725"
               x="52.548088"
               id="tspan4141"
               sodipodi:role="line">yto</tspan></text>
        </g>
        <g
           style="font-style:normal;font-variant:normal;font-weight:900;font-stretch:normal;font-size:medium;line-height:125%;font-family:Lovelo;-inkscape-font-specification:'Lovelo, Heavy';text-align:start;letter-spacing:11.67754173px;word-spacing:0px;writing-mode:lr-tb;text-anchor:start;fill:#ffb546;fill-opacity:1;stroke:none;stroke-width:1px;stroke-linecap:butt;stroke-linejoin:miter;stroke-opacity:1"
           transform="translate(-24.416692,180.54776)"
           id="g4205">
          <path
             d="m -144.59585,765.28724 3.00292,7.97326 16.67137,0 -31.16821,-76.7297 -1.55323,0 -31.16821,76.7297 16.77492,0 5.59164,-14.91104 9.63004,-26.19786 6.73067,19.26009 m 0,0 -13.66844,0"
             style="font-style:normal;font-variant:normal;font-weight:900;font-stretch:normal;font-size:103.54885101px;line-height:125%;font-family:Lovelo;-inkscape-font-specification:'Lovelo, Heavy';text-align:start;writing-mode:lr-tb;text-anchor:start;fill:#ffb546;fill-opacity:1"
             id="path4240"
             inkscape:connector-curvature="0"
             sodipodi:nodetypes="cccccccccccc" />
          <path
             d="m -88.149604,732.98 37.484685,41.83373 3.934856,0 0,-75.48711 -14.911035,0 0,41.83373 -37.381135,-43.49051 -3.934857,0 0,75.59066 14.807486,0 0,-40.2805 z"
             style="font-style:normal;font-variant:normal;font-weight:900;font-stretch:normal;font-size:103.54885101px;line-height:125%;font-family:Lovelo;-inkscape-font-specification:'Lovelo, Heavy';text-align:start;writing-mode:lr-tb;text-anchor:start;fill:#ffb546;fill-opacity:1"
             id="path4242"
             inkscape:connector-curvature="0" />
          <path
             d="m 3.5841371,699.22307 -22.0559051,0 0,74.03743 22.0559051,0 c 49.2892529,0 49.2892529,-74.03743 0,-74.03743 z m 0,14.80749 c 28.7865809,0 28.7865809,44.42245 0,44.42245 l -7.2484196,0 0,-44.42245 7.2484196,0 z"
             style="font-style:normal;font-variant:normal;font-weight:900;font-stretch:normal;font-size:103.54885101px;line-height:125%;font-family:Lovelo;-inkscape-font-specification:'Lovelo, Heavy';text-align:start;writing-mode:lr-tb;text-anchor:start;fill:#ffb546;fill-opacity:1"
             id="path4244"
             inkscape:connector-curvature="0" />
          <path
             d="m 119.13413,747.47683 0,-48.25376 -14.70394,0 0,48.15022 c 0,15.53232 -24.023332,15.53232 -24.023332,0 l 0,-48.15022 -14.807485,0 0,48.25376 c 0,35.20661 53.534757,35.20661 53.534757,0 z"
             style="font-style:normal;font-variant:normal;font-weight:900;font-stretch:normal;font-size:103.54885101px;line-height:125%;font-family:Lovelo;-inkscape-font-specification:'Lovelo, Heavy';text-align:start;writing-mode:lr-tb;text-anchor:start;fill:#ffb546;fill-opacity:1"
             id="path4246"
             inkscape:connector-curvature="0" />
          <path
             d="M 200.90131,773.2605 183.7122,742.71359 c 21.74526,-6.31648 19.15654,-43.49052 -7.24842,-43.49052 l -29.20078,0 0,74.03743 14.80749,0 0,-28.26884 7.14487,0 14.91103,28.26884 16.77492,0 z m -38.83082,-59.22994 13.04715,0 c 10.04424,0 10.04424,16.56781 0,16.56781 l -13.04715,0 0,-16.56781 z"
             style="font-style:normal;font-variant:normal;font-weight:900;font-stretch:normal;font-size:103.54885101px;line-height:125%;font-family:Lovelo;-inkscape-font-specification:'Lovelo, Heavy';text-align:start;writing-mode:lr-tb;text-anchor:start;fill:#ffb546;fill-opacity:1"
             id="path4248"
             inkscape:connector-curvature="0" />
          <path
             d="m 237.25259,773.2605 0,-74.03743 -14.80749,0 0,74.03743 14.80749,0 z"
             style="font-style:normal;font-variant:normal;font-weight:900;font-stretch:normal;font-size:103.54885101px;line-height:125%;font-family:Lovelo;-inkscape-font-specification:'Lovelo, Heavy';text-align:start;writing-mode:lr-tb;text-anchor:start;fill:#ffb546;fill-opacity:1"
             id="path4250"
             inkscape:connector-curvature="0" />
          <path
             d="m 265.67267,699.22307 0,74.03743 38.31308,0 0,-14.80749 -23.50559,0 0,-59.22994 -14.80749,0 z"
             style="font-style:normal;font-variant:normal;font-weight:900;font-stretch:normal;font-size:103.54885101px;line-height:125%;font-family:Lovelo;-inkscape-font-specification:'Lovelo, Heavy';text-align:start;writing-mode:lr-tb;text-anchor:start;fill:#ffb546;fill-opacity:1"
             id="path4252"
             inkscape:connector-curvature="0" />
          <path
             d="m 384.22958,713.92701 13.1507,0 c 4.24551,0 6.83423,3.31356 6.83423,7.45551 0,4.03841 -2.58872,7.45552 -6.83423,7.45552 l -4.2455,0 -8.9052,0 0,-14.91103 z m -14.91103,59.33349 29.30432,0 c 12.01167,0 21.84881,-9.83714 21.84881,-22.263 0,-5.79874 -2.79582,-11.49393 -7.66262,-14.80749 4.6597,-3.21001 6.62713,-9.00875 6.83423,-14.60039 0.31064,-13.04715 -7.86972,-22.4701 -21.02042,-22.4701 l -29.30432,0 0,74.14098 z m 14.91103,-29.61497 13.1507,0 c 4.24551,0 7.45552,3.21001 7.45552,7.35197 0,4.14195 -3.21001,7.45551 -7.45552,7.45551 l -4.2455,0 -8.9052,0 0,-14.80748 z"
             style="font-style:normal;font-variant:normal;font-weight:900;font-stretch:normal;font-size:103.54885101px;line-height:125%;font-family:Lovelo;-inkscape-font-specification:'Lovelo, Heavy';text-align:start;writing-mode:lr-tb;text-anchor:start;fill:#ffb546;fill-opacity:1"
             id="path4254"
             inkscape:connector-curvature="0" />
          <path
             d="m 498.43019,747.47683 0,-48.25376 -14.70393,0 0,48.15022 c 0,15.53232 -24.02334,15.53232 -24.02334,0 l 0,-48.15022 -14.80748,0 0,48.25376 c 0,35.20661 53.53475,35.20661 53.53475,0 z"
             style="font-style:normal;font-variant:normal;font-weight:900;font-stretch:normal;font-size:103.54885101px;line-height:125%;font-family:Lovelo;-inkscape-font-specification:'Lovelo, Heavy';text-align:start;writing-mode:lr-tb;text-anchor:start;fill:#ffb546;fill-opacity:1"
             id="path4256"
             inkscape:connector-curvature="0" />
          <path
             d="m 541.36657,732.98 37.48468,41.83373 3.93486,0 0,-75.48711 -14.91103,0 0,41.83373 -37.38114,-43.49051 -3.93485,0 0,75.59066 14.80748,0 0,-40.2805 z"
             style="font-style:normal;font-variant:normal;font-weight:900;font-stretch:normal;font-size:103.54885101px;line-height:125%;font-family:Lovelo;-inkscape-font-specification:'Lovelo, Heavy';text-align:start;writing-mode:lr-tb;text-anchor:start;fill:#ffb546;fill-opacity:1"
             id="path4258"
             inkscape:connector-curvature="0" />
          <path
             d="m 633.10034,699.22307 -22.0559,0 0,74.03743 22.0559,0 c 49.28925,0 49.28925,-74.03743 0,-74.03743 z m 0,14.80749 c 28.78658,0 28.78658,44.42245 0,44.42245 l -7.24842,0 0,-44.42245 7.24842,0 z"
             style="font-style:normal;font-variant:normal;font-weight:900;font-stretch:normal;font-size:103.54885101px;line-height:125%;font-family:Lovelo;-inkscape-font-specification:'Lovelo, Heavy';text-align:start;writing-mode:lr-tb;text-anchor:start;fill:#ffb546;fill-opacity:1"
             id="path4260"
             inkscape:connector-curvature="0" />
          <path
             d="m 695.52973,699.22307 0,74.03743 38.31307,0 0,-14.80749 -23.50559,0 0,-59.22994 -14.80748,0 z"
             style="font-style:normal;font-variant:normal;font-weight:900;font-stretch:normal;font-size:103.54885101px;line-height:125%;font-family:Lovelo;-inkscape-font-specification:'Lovelo, Heavy';text-align:start;writing-mode:lr-tb;text-anchor:start;fill:#ffb546;fill-opacity:1"
             id="path4262"
             inkscape:connector-curvature="0" />
          <path
             d="m 796.48581,773.2605 0,-14.80749 -23.50559,0 0,-14.80748 19.46718,0 0,-14.80749 -19.46718,0 0,-14.80748 22.263,0 0,-14.80749 -37.07049,0 0,74.03743 38.31308,0 z"
             style="font-style:normal;font-variant:normal;font-weight:900;font-stretch:normal;font-size:103.54885101px;line-height:125%;font-family:Lovelo;-inkscape-font-specification:'Lovelo, Heavy';text-align:start;writing-mode:lr-tb;text-anchor:start;fill:#ffb546;fill-opacity:1"
             id="path4264"
             inkscape:connector-curvature="0" />
        </g>
        <text
           id="text4201"
           y="745.43872"
           x="-726.2345"
           style="font-style:normal;font-variant:normal;font-weight:normal;font-stretch:normal;line-height:0%;font-family:sans-serif;-inkscape-font-specification:'Lovelo, Heavy';text-align:start;letter-spacing:1.86999857px;word-spacing:0px;writing-mode:lr-tb;text-anchor:start;fill:#000000;fill-opacity:1;stroke:none;stroke-width:1px;stroke-linecap:butt;stroke-linejoin:miter;stroke-opacity:1"
           xml:space="preserve"><tspan
             y="745.43872"
             x="-726.2345"
             id="tspan4203"
             sodipodi:role="line"
             style="font-size:40px;line-height:1.25;font-family:sans-serif"> </tspan></text>
        <g
           style="font-style:normal;font-variant:normal;font-weight:900;font-stretch:normal;font-size:87.10784149px;line-height:125%;font-family:Lovelo;-inkscape-font-specification:'Lovelo, Heavy';text-align:start;letter-spacing:4.07228804px;word-spacing:0px;writing-mode:lr-tb;text-anchor:start;fill:#ffb546;fill-opacity:1;stroke:none;stroke-width:1px;stroke-linecap:butt;stroke-linejoin:miter;stroke-opacity:1"
           id="text4220"
           inkscape:export-filename="/home/casado/Downloads/cyto_logo_text.png"
           inkscape:export-xdpi="200"
           inkscape:export-ydpi="200">
          <path
             d="m -176.27342,699.38684 0,-23.78044 12.02088,0 c 24.12887,0 24.21598,-38.41456 0,-38.41456 l -24.4773,0 0,62.195 12.45642,0 z m 0,-35.88843 0,-13.93725 10.97559,0 c 8.36235,0 8.36235,13.93725 0,13.93725 l -10.97559,0 z"
             style=""
             id="path4274" />
          <path
             d="m -102.12152,700.25792 c 42.857062,0 42.857062,-64.19848 0,-64.19848 -42.85705,0 -42.85705,64.19848 0,64.19848 z m 0,-12.89196 c -24.91284,0 -24.91284,-38.50167 0,-38.50167 24.912847,0 24.912847,38.50167 0,38.50167 z"
             style=""
             id="path4276" />
          <path
             d="m -32.922506,700.69346 11.324019,-27.87451 11.411127,27.61318 2.2648044,0 25.4354896,-63.3274 -14.0243624,0 -12.5435292,31.79437 -12.1950974,-31.18461 -0.609755,0 -12.195098,31.18461 -12.543529,-31.79437 -14.024363,0 25.522598,63.58873 2.177696,0 z"
             style=""
             id="path4278" />
          <path
             d="m 61.407116,699.38684 0,-12.45642 -19.77348,0 0,-12.45642 16.376274,0 0,-12.45642 -16.376274,0 0,-12.45642 18.728186,0 0,-12.45643 -31.184607,0 0,62.28211 32.229901,0 z"
             style=""
             id="path4280" />
          <path
             d="m 122.26555,699.38684 -14.4599,-25.69681 c 18.29265,-5.31358 16.11495,-36.5853 -6.09755,-36.5853 l -24.564409,0 0,62.28211 12.456422,0 0,-23.78044 6.010441,0 12.543526,23.78044 14.11147,0 z m -32.665437,-49.82568 10.975587,0 c 8.44946,0 8.44946,13.93725 0,13.93725 l -10.975587,0 0,-13.93725 z"
             style=""
             id="path4282" />
          <path
             d="m 166.86749,699.38684 0,-12.45642 -19.77348,0 0,-12.45642 16.37627,0 0,-12.45642 -16.37627,0 0,-12.45642 18.72819,0 0,-12.45643 -31.18461,0 0,62.28211 32.2299,0 z"
             style=""
             id="path4284" />
          <path
             d="m 201.15802,637.10473 -18.55397,0 0,62.28211 18.55397,0 c 41.46333,0 41.46333,-62.28211 0,-62.28211 z m 0,12.45643 c 24.21598,0 24.21598,37.36926 0,37.36926 l -6.09755,0 0,-37.36926 6.09755,0 z"
             style=""
             id="path4286" />
          <path
             d="m 289.20907,649.47405 11.0627,0 c 3.57142,0 5.74911,2.78745 5.74911,6.27176 0,3.39721 -2.17769,6.27177 -5.74911,6.27177 l -3.57142,0 -7.49128,0 0,-12.54353 z m -12.54353,49.91279 24.65152,0 c 10.10451,0 18.37976,-8.27524 18.37976,-18.72819 0,-4.87803 -2.35192,-9.66897 -6.44598,-12.45642 3.91985,-2.70034 5.5749,-7.57838 5.74911,-12.2822 0.26133,-10.97559 -6.62019,-18.9024 -17.68289,-18.9024 l -24.65152,0 0,62.36921 z m 12.54353,-24.91284 11.0627,0 c 3.57142,0 6.27176,2.70034 6.27176,6.18465 0,3.48432 -2.70034,6.27177 -6.27176,6.27177 l -3.57142,0 -7.49128,0 0,-12.45642 z"
             style=""
             id="path4288" />
          <path
             d="m 348.04223,699.38684 12.36931,0 0,-28.04872 21.77696,-34.23339 -15.24387,0 -12.71775,21.42853 -12.71774,-21.42853 -15.15677,0 21.68986,34.23339 0,28.04872 z"
             style=""
             id="path4290" />
          <path
             d="m 437.60134,681.00709 5.83623,-16.20206 5.66201,16.20206 4.61671,11.67245 2.52613,6.7073 14.02436,0 -26.21946,-64.54691 -1.30662,0 -26.21946,64.54691 14.11147,0 2.43902,-6.7073"
             id="path4292"
             inkscape:connector-curvature="0"
             sodipodi:nodetypes="ccccccccccc" />
          <path
             d="m 495.44911,665.50189 31.53304,35.19157 3.3101,0 0,-63.50162 -12.54353,0 0,35.19157 -31.44593,-36.58529 -3.3101,0 0,63.58872 12.45642,0 0,-33.88495 z"
             style=""
             id="path4294" />
          <path
             d="m 566.86667,637.10473 -18.55397,0 0,62.28211 18.55397,0 c 41.46333,0 41.46333,-62.28211 0,-62.28211 z m 0,12.45643 c 24.21598,0 24.21598,37.36926 0,37.36926 l -6.09755,0 0,-37.36926 6.09755,0 z"
             style=""
             id="path4296" />
          <path
             d="m 658.31903,677.69699 0,-40.59226 -12.36932,0 0,40.50515 c 0,13.06618 -20.20901,13.06618 -20.20901,0 l 0,-40.50515 -12.45643,0 0,40.59226 c 0,29.61666 45.03476,29.61666 45.03476,0 z"
             style=""
             id="path4298" />
          <path
             d="M 721.35241,699.38684 706.8925,673.69003 c 18.29265,-5.31358 16.11496,-36.5853 -6.09754,-36.5853 l -24.56442,0 0,62.28211 12.45643,0 0,-23.78044 6.01044,0 12.54353,23.78044 14.11147,0 z m -32.66544,-49.82568 10.97558,0 c 8.44946,0 8.44946,13.93725 0,13.93725 l -10.97558,0 0,-13.93725 z"
             style=""
             id="path4300" />
          <path
             d="m 746.18086,699.38684 0,-62.28211 -12.45642,0 0,62.28211 12.45642,0 z"
             style=""
             id="path4302" />
          <path
             d="m 764.33742,637.10473 0,62.28211 32.2299,0 0,-12.45642 -19.77348,0 0,-49.82569 -12.45642,0 z"
             style=""
             id="path4304" />
        </g>
        <g
           id="g4174"
           transform="translate(1.4509198e-5,187.4528)"
           inkscape:export-filename="/home/casado/Downloads/cyto_logo_text.png"
           inkscape:export-xdpi="200"
           inkscape:export-ydpi="200">
          <g
             id="text4139-3"
             style="font-style:normal;font-variant:normal;font-weight:300;font-stretch:normal;font-size:76.0546875px;line-height:125%;font-family:Lovelo;-inkscape-font-specification:'Lovelo, Light';text-align:start;letter-spacing:8.57698917px;word-spacing:0px;writing-mode:lr-tb;text-anchor:start;fill:#000000;fill-opacity:1;stroke:none;stroke-width:1px;stroke-linecap:butt;stroke-linejoin:miter;stroke-opacity:1">
            <path
               inkscape:connector-curvature="0"
               id="path4188"
               style="font-style:normal;font-variant:normal;font-weight:300;font-stretch:normal;font-size:76.0546875px;line-height:125%;font-family:Lovelo;-inkscape-font-specification:'Lovelo, Light';text-align:start;writing-mode:lr-tb;text-anchor:start"
               d="m -188.28888,640.45508 c 3.04219,1.52109 5.93227,2.50981 8.67023,3.11824 13.84196,3.27035 26.08676,-2.66191 26.08676,-16.42781 0,-13.7659 -16.65597,-16.57992 -20.07844,-19.16578 -1.06476,-0.8366 -1.6732,-2.05348 -1.6732,-3.1943 -0.076,-2.58586 1.97742,-3.95484 4.25906,-4.25906 3.57457,-0.38027 8.21391,1.06477 10.87582,2.12953 1.06477,0.45633 1.74926,-1.14082 0.6845,-1.59715 -4.41118,-1.82531 -7.83364,-2.5098 -11.48426,-2.28164 -3.49852,0.15211 -6.23649,2.73797 -6.08438,6.23649 0.45633,6.92097 9.88711,5.47593 17.34047,12.47296 6.46465,5.93227 5.32383,15.43911 0.15211,20.68688 -6.76887,6.76887 -19.08972,5.32383 -27.83601,0.76055 -1.06477,-0.53239 -1.90137,0.98871 -0.91266,1.52109 z m 30.19371,-50.3482 c -3.57457,-1.21688 -6.31254,-1.82532 -8.44207,-2.12953 -12.2448,-1.67321 -21.44742,5.39988 -21.44742,17.18836 0,14.14617 16.65598,16.12359 20.23055,19.08972 1.74925,1.59715 2.05347,4.33512 0.22816,6.00832 -3.80273,3.49852 -13.61379,0.68449 -18.40523,-2.66191 -0.91266,-0.60844 -1.97743,0.76055 -0.98872,1.44504 4.8675,3.57457 11.02793,4.79144 15.81938,4.48722 3.57457,-0.22816 6.76887,-2.73796 6.5407,-6.31254 -0.45633,-6.99703 -9.735,-5.7041 -17.18836,-12.16875 -6.5407,-5.85621 -5.32383,-15.51515 -0.45633,-20.76292 6.00833,-6.54071 15.36305,-5.39989 23.5009,-2.58586 1.06477,0.45632 1.67321,-1.21688 0.60844,-1.59715 z" />
            <path
               inkscape:connector-curvature="0"
               id="path4190"
               style="font-style:normal;font-variant:normal;font-weight:300;font-stretch:normal;font-size:76.0546875px;line-height:125%;font-family:Lovelo;-inkscape-font-specification:'Lovelo, Light';text-align:start;writing-mode:lr-tb;text-anchor:start"
               d="M -123.14384,643.2691 V 588.89 c 0,-0.45633 -0.38027,-0.8366 -0.8366,-0.8366 -0.53239,0 -0.91266,0.38027 -0.91266,0.8366 v 54.3791 c 0,0.45633 0.38027,0.83661 0.91266,0.83661 0.45633,0 0.8366,-0.38028 0.8366,-0.83661 z m -10.87582,0 V 588.89 c 0,-0.45633 -0.38027,-0.8366 -0.8366,-0.8366 -0.53239,0 -0.91266,0.38027 -0.91266,0.8366 v 54.3791 c 0,0.45633 0.38027,0.83661 0.91266,0.83661 0.45633,0 0.8366,-0.38028 0.8366,-0.83661 z" />
            <path
               inkscape:connector-curvature="0"
               id="path4192"
               style="font-style:normal;font-variant:normal;font-weight:300;font-stretch:normal;font-size:76.0546875px;line-height:125%;font-family:Lovelo;-inkscape-font-specification:'Lovelo, Light';text-align:start;writing-mode:lr-tb;text-anchor:start"
               d="m -56.295891,643.2691 v -54.30304 c 0,-1.21688 -1.825312,-1.21688 -1.825312,0 v 54.30304 c 0,1.14082 1.825312,1.14082 1.825312,0 z m -44.339879,0 v -54.30304 c 0,-1.21688 -1.74926,-1.21688 -1.74926,0 v 54.30304 c 0,1.14082 1.74926,1.14082 1.74926,0 z m 8.289958,-53.84671 23.576953,33.84433 c 0.456328,0.76055 1.673203,0.30422 1.673203,-0.53238 v -33.76828 c 0,-1.21688 -1.825313,-1.21688 -1.825313,0 v 30.95425 l -22.055859,-31.48664 c -0.608438,-0.98871 -2.053477,0.0761 -1.368984,0.98872 z m 26.086757,53.31433 -23.576953,-33.84433 c -0.608437,-0.6845 -1.673203,-0.30422 -1.673203,0.53238 v 33.84433 c 0,1.14082 1.825313,1.14082 1.825313,0 v -31.03031 l 21.90375,31.5627 c 0.760547,0.91265 2.129531,-0.0761 1.521093,-1.06477 z" />
            <path
               inkscape:connector-curvature="0"
               id="path4194"
               style="font-style:normal;font-variant:normal;font-weight:300;font-stretch:normal;font-size:76.0546875px;line-height:125%;font-family:Lovelo;-inkscape-font-specification:'Lovelo, Light';text-align:start;writing-mode:lr-tb;text-anchor:start"
               d="m 3.7380432,639.39031 c -4.03089842,2.28165 -8.5941797,3.34641 -13.1574609,3.34641 -12.3208593,0 -20.5347653,-6.5407 -24.3375003,-15.05883 -3.118242,-6.92097 -3.194297,-15.21093 -0.380273,-22.28402 3.650625,-8.74629 11.712422,-15.59121 24.793828,-15.97148 4.2590625,-0.15211 8.36601559,0.53238 12.396914,1.82531 0.4563282,0.15211 0.9126563,-0.0761 1.1408203,-0.53239 0.1521094,-0.45632 -0.1521093,-0.98871 -0.6084375,-1.14082 -4.25906246,-1.36898 -8.518125,-2.12953 -13.0053515,-1.97742 -13.8419533,0.45633 -22.5121873,7.83364 -26.3149223,17.11231 -3.042187,7.52941 -2.890078,16.35176 0.380274,23.65301 4.030898,9.12656 12.777187,16.19964 25.9346483,16.19964 5.095664,0 10.03921873,-1.36898 14.5264453,-3.87879 0.2281641,-0.22816 0.4563281,-0.53238 0.3802734,-0.8366 v -23.80511 c 0,-0.45633 -0.3802734,-0.83661 -0.8366015,-0.83661 -0.4563282,0 -0.9126563,0.38028 -0.9126563,0.83661 z m -1.445039,-38.78789 c -3.650625,-1.6732 -7.7575782,-2.12953 -11.7124219,-1.97742 -8.2139063,0.30422 -13.4616793,4.79145 -15.7433203,10.49555 -1.749258,4.56328 -1.673203,9.96316 0.304219,14.45039 2.357695,5.62805 7.605468,9.96316 15.4391013,9.96316 1.0647656,0 2.1295312,-0.0761 3.1182422,-0.30421 0.4563281,0 0.7605468,-0.38028 0.7605468,-0.83661 v -16.35175 c 0,-0.45633 -0.3802734,-0.83661 -0.8366015,-0.83661 -0.5323828,0 -0.9126563,0.38028 -0.9126563,0.83661 v 15.51515 c -0.7605468,0.15211 -1.445039,0.15211 -2.1295312,0.15211 -7.0730863,0 -11.6363673,-3.80273 -13.8419533,-8.82234 -1.825312,-4.0309 -1.901367,-8.97446 -0.228164,-13.08141 2.053477,-5.09566 6.692813,-9.12656 14.146172,-9.35473 3.7266797,-0.22816 7.4533593,0.22817 10.951875,1.74926 0.4563281,0.22817 0.9887109,0 1.1408203,-0.45633 0.228164,-0.38027 0,-0.91265 -0.4563281,-1.14082 z" />
            <path
               inkscape:connector-curvature="0"
               id="path4196"
               style="font-style:normal;font-variant:normal;font-weight:300;font-stretch:normal;font-size:76.0546875px;line-height:125%;font-family:Lovelo;-inkscape-font-specification:'Lovelo, Light';text-align:start;writing-mode:lr-tb;text-anchor:start"
               d="M 58.503986,642.35645 H 27.777892 V 588.89 c 0,-0.45633 -0.380273,-0.8366 -0.912656,-0.8366 -0.456328,0 -0.836601,0.38027 -0.836601,0.8366 v 54.3791 c 0,0.45633 0.380273,0.83661 0.836601,0.83661 h 31.63875 c 0.532383,0 0.912656,-0.38028 0.912656,-0.83661 0,-0.53238 -0.380273,-0.91265 -0.912656,-0.91265 z M 36.8284,588.89 v 43.50328 c 0,0.45633 0.456328,0.83661 0.912657,0.83661 h 20.762929 c 0.532383,0 0.912656,-0.38028 0.912656,-0.83661 0,-0.53238 -0.380273,-0.91265 -0.912656,-0.91265 H 38.653713 V 588.89 c 0,-0.45633 -0.456328,-0.8366 -0.912656,-0.8366 -0.456329,0 -0.912657,0.38027 -0.912657,0.8366 z" />
            <path
               inkscape:connector-curvature="0"
               id="path4198"
               style="font-style:normal;font-variant:normal;font-weight:300;font-stretch:normal;font-size:76.0546875px;line-height:125%;font-family:Lovelo;-inkscape-font-specification:'Lovelo, Light';text-align:start;writing-mode:lr-tb;text-anchor:start"
               d="M 101.34362,620.60481 H 89.174869 c -0.532383,0 -0.912656,0.38027 -0.912656,0.91265 v 10.87582 c 0,0.45633 0.380273,0.83661 0.912656,0.83661 h 17.264411 c 0.45633,0 0.8366,-0.38028 0.8366,-0.83661 0,-0.53238 -0.38027,-0.91265 -0.8366,-0.91265 H 90.01147 v -9.12657 h 11.33215 c 0.53238,0 0.91266,-0.38027 0.91266,-0.8366 0,-0.53238 -0.38028,-0.91265 -0.91266,-0.91265 z m 5.09566,-21.67559 H 89.174869 c -0.532383,0 -0.912656,0.38027 -0.912656,0.8366 v 10.87582 c 0,0.45633 0.380273,0.91266 0.912656,0.91266 h 12.168751 c 0.53238,0 0.91266,-0.45633 0.91266,-0.91266 0,-0.45633 -0.38028,-0.91265 -0.91266,-0.91265 H 90.01147 v -9.05051 h 16.42781 c 0.45633,0 0.8366,-0.38027 0.8366,-0.91266 0,-0.45633 -0.38027,-0.8366 -0.8366,-0.8366 z m 0,43.42723 H 79.13565 v -52.55379 h 27.30363 c 0.45633,0 0.8366,-0.38027 0.8366,-0.91266 0,-0.45633 -0.38027,-0.8366 -0.8366,-0.8366 H 78.299048 c -0.532382,0 -0.912656,0.38027 -0.912656,0.8366 v 54.3791 c 0,0.45633 0.380274,0.83661 0.912656,0.83661 h 28.140232 c 0.45633,0 0.8366,-0.38028 0.8366,-0.83661 0,-0.53238 -0.38027,-0.91265 -0.8366,-0.91265 z" />
            <path
               inkscape:connector-curvature="0"
               id="path4200"
               style="font-style:normal;font-variant:normal;font-weight:300;font-stretch:normal;font-size:76.0546875px;line-height:125%;font-family:Lovelo;-inkscape-font-specification:'Lovelo, Light';text-align:start;writing-mode:lr-tb;text-anchor:start"
               d="m 196.99673,593.7266 c -5.04005,-4.37395 -11.2252,-6.20558 -15.02793,-6.20558 -13.53774,0 -22.20797,7.30125 -26.01071,16.73203 -2.96613,7.22519 -2.96613,15.74332 0,23.04457 3.80274,9.35473 12.47297,16.65598 26.01071,16.65598 4.88181,0 9.37126,-1.60143 15.02793,-6.12954 0.42485,-0.28247 0.68449,-0.68449 0.45632,-1.21687 -0.1521,-0.38027 -0.77199,-0.63441 -1.14082,-0.45633 -5.4285,4.06565 -9.68978,6.20763 -14.34343,6.05348 -12.77019,-0.42302 -20.91504,-6.76887 -24.48961,-15.59121 -2.73797,-6.84492 -2.73797,-14.83067 0,-21.75164 3.57457,-8.67024 11.71242,-15.59121 24.48961,-15.59121 3.57457,0 9.53155,1.60142 14.34343,6.05347 0.38028,0.15211 0.98872,0 1.14082,-0.45633 0.15211,-0.45632 0,-0.98871 -0.45632,-1.14082 z m -8.12953,35.32028 c -2.04122,1.36489 -4.24671,2.43579 -6.8984,2.28164 -7.28894,-0.42374 -11.86453,-3.95485 -13.91801,-9.12656 -1.59715,-4.0309 -1.59715,-8.82235 0,-12.85325 2.05348,-5.09566 6.61676,-9.12656 13.91801,-9.12656 3.26831,0 5.01134,0.60844 6.8984,2.20559 0.39923,0.31765 0.91265,0.0761 1.14082,-0.30422 0.22816,-0.45633 0.0552,-0.95704 -0.30422,-1.21688 -2.22686,-1.71486 -4.62493,-2.43375 -7.735,-2.43375 -8.0618,0 -13.30957,4.48723 -15.51516,10.26739 -1.74926,4.41117 -1.74926,9.58289 0,14.07011 2.20559,5.78016 7.45336,10.19133 15.51516,10.19133 2.95591,0 5.85203,-1.0709 7.735,-2.43375 0.35092,-0.27114 0.53238,-0.76055 0.30422,-1.14082 -0.22817,-0.45633 -0.70308,-0.64233 -1.14082,-0.38027 z"
               sodipodi:nodetypes="csccscccsccsccccsccscccsccsccc" />
            <path
               inkscape:connector-curvature="0"
               id="path4202"
               style="font-style:normal;font-variant:normal;font-weight:300;font-stretch:normal;font-size:76.0546875px;line-height:125%;font-family:Lovelo;-inkscape-font-specification:'Lovelo, Light';text-align:start;writing-mode:lr-tb;text-anchor:start"
               d="m 234.76922,620.60481 h -12.16875 c -0.53239,0 -0.91266,0.38027 -0.91266,0.91265 v 10.87582 c 0,0.45633 0.38027,0.83661 0.91266,0.83661 h 17.26441 c 0.45633,0 0.8366,-0.38028 0.8366,-0.83661 0,-0.53238 -0.38027,-0.91265 -0.8366,-0.91265 h -16.42781 v -9.12657 h 11.33215 c 0.53238,0 0.91265,-0.38027 0.91265,-0.8366 0,-0.53238 -0.38027,-0.91265 -0.91265,-0.91265 z m 5.09566,-21.67559 h -17.26441 c -0.53239,0 -0.91266,0.38027 -0.91266,0.8366 v 10.87582 c 0,0.45633 0.38027,0.91266 0.91266,0.91266 h 12.16875 c 0.53238,0 0.91265,-0.45633 0.91265,-0.91266 0,-0.45633 -0.38027,-0.91265 -0.91265,-0.91265 h -11.33215 v -9.05051 h 16.42781 c 0.45633,0 0.8366,-0.38027 0.8366,-0.91266 0,-0.45633 -0.38027,-0.8366 -0.8366,-0.8366 z m 0,43.42723 h -27.30363 v -52.55379 h 27.30363 c 0.45633,0 0.8366,-0.38027 0.8366,-0.91266 0,-0.45633 -0.38027,-0.8366 -0.8366,-0.8366 h -28.14023 c -0.53239,0 -0.91266,0.38027 -0.91266,0.8366 v 54.3791 c 0,0.45633 0.38027,0.83661 0.91266,0.83661 h 28.14023 c 0.45633,0 0.8366,-0.38028 0.8366,-0.83661 0,-0.53238 -0.38027,-0.91265 -0.8366,-0.91265 z" />
            <path
               inkscape:connector-curvature="0"
               id="path4204"
               style="font-style:normal;font-variant:normal;font-weight:300;font-stretch:normal;font-size:76.0546875px;line-height:125%;font-family:Lovelo;-inkscape-font-specification:'Lovelo, Light';text-align:start;writing-mode:lr-tb;text-anchor:start"
               d="M 291.9713,642.35645 H 261.24521 V 588.89 c 0,-0.45633 -0.38028,-0.8366 -0.91266,-0.8366 -0.45633,0 -0.8366,0.38027 -0.8366,0.8366 v 54.3791 c 0,0.45633 0.38027,0.83661 0.8366,0.83661 h 31.63875 c 0.53238,0 0.91266,-0.38028 0.91266,-0.83661 0,-0.53238 -0.38028,-0.91265 -0.91266,-0.91265 z M 270.29572,588.89 v 43.50328 c 0,0.45633 0.45632,0.83661 0.91265,0.83661 h 20.76293 c 0.53238,0 0.91266,-0.38028 0.91266,-0.83661 0,-0.53238 -0.38028,-0.91265 -0.91266,-0.91265 H 272.12103 V 588.89 c 0,-0.45633 -0.45633,-0.8366 -0.91266,-0.8366 -0.45633,0 -0.91265,0.38027 -0.91265,0.8366 z" />
            <path
               inkscape:connector-curvature="0"
               id="path4206"
               style="font-style:normal;font-variant:normal;font-weight:300;font-stretch:normal;font-size:76.0546875px;line-height:125%;font-family:Lovelo;-inkscape-font-specification:'Lovelo, Light';text-align:start;writing-mode:lr-tb;text-anchor:start"
               d="M 343.32903,642.35645 H 312.60294 V 588.89 c 0,-0.45633 -0.38028,-0.8366 -0.91266,-0.8366 -0.45633,0 -0.8366,0.38027 -0.8366,0.8366 v 54.3791 c 0,0.45633 0.38027,0.83661 0.8366,0.83661 h 31.63875 c 0.53238,0 0.91266,-0.38028 0.91266,-0.83661 0,-0.53238 -0.38028,-0.91265 -0.91266,-0.91265 z M 321.65344,588.89 v 43.50328 c 0,0.45633 0.45633,0.83661 0.91266,0.83661 h 20.76293 c 0.53238,0 0.91266,-0.38028 0.91266,-0.83661 0,-0.53238 -0.38028,-0.91265 -0.91266,-0.91265 H 323.47876 V 588.89 c 0,-0.45633 -0.45633,-0.8366 -0.91266,-0.8366 -0.45633,0 -0.91266,0.38027 -0.91266,0.8366 z" />
            <path
               sodipodi:nodetypes="ccccccccsccccccsccccsc"
               inkscape:connector-curvature="0"
               id="path4208"
               style="font-style:normal;font-variant:normal;font-weight:300;font-stretch:normal;font-size:76.0546875px;line-height:125%;font-family:Lovelo;-inkscape-font-specification:'Lovelo, Light';text-align:start;writing-mode:lr-tb;text-anchor:start"
               d="m 415.19697,625.28478 -3.62783,-8.86298 c -0.22817,-0.53238 -0.6845,-0.76055 -1.21688,-0.53238 -0.38027,0.15211 -0.60844,0.68449 -0.45633,1.14082 l 3.57457,8.67023 c 3.18542,5.53317 5.41059,10.67998 1.72647,-0.41569 z m -1.72198,0.42833 6.91653,17.02361 c 0.22816,0.53238 0.68449,0.68449 1.14082,0.53238 0.45633,-0.15211 0.68449,-0.76054 0.53238,-1.14082 l -6.8821,-16.82602 c -1.89595,-3.67937 -2.60237,-4.39624 -1.70763,0.41085 z m -24.26589,17.02361 21.52348,-52.7059 21.52347,52.7059 c 0.15211,0.53238 0.68449,0.68449 1.14082,0.53238 0.45633,-0.15211 0.60844,-0.76054 0.45633,-1.14082 l -22.28402,-54.68332 c -0.30422,-0.76054 -1.36899,-0.8366 -1.67321,0 l -22.28402,54.68332 c -0.22816,0.38028 0,0.98871 0.45633,1.14082 0.45633,0.15211 0.98871,0 1.14082,-0.53238 z" />
            <path
               inkscape:connector-curvature="0"
               id="path4210"
               style="font-style:normal;font-variant:normal;font-weight:300;font-stretch:normal;font-size:76.0546875px;line-height:125%;font-family:Lovelo;-inkscape-font-specification:'Lovelo, Light';text-align:start;writing-mode:lr-tb;text-anchor:start"
               d="m 496.16166,643.2691 v -54.30304 c 0,-1.21688 -1.82531,-1.21688 -1.82531,0 v 54.30304 c 0,1.14082 1.82531,1.14082 1.82531,0 z m -44.33988,0 v -54.30304 c 0,-1.21688 -1.74926,-1.21688 -1.74926,0 v 54.30304 c 0,1.14082 1.74926,1.14082 1.74926,0 z m 8.28996,-53.84671 23.57695,33.84433 c 0.45633,0.76055 1.6732,0.30422 1.6732,-0.53238 v -33.76828 c 0,-1.21688 -1.82531,-1.21688 -1.82531,0 v 30.95425 l -22.05586,-31.48664 c -0.60844,-0.98871 -2.05347,0.0761 -1.36898,0.98872 z m 26.08676,53.31433 -23.57696,-33.84433 c -0.60844,-0.6845 -1.6732,-0.30422 -1.6732,0.53238 v 33.84433 c 0,1.14082 1.82531,1.14082 1.82531,0 v -31.03031 l 21.90375,31.5627 c 0.76055,0.91265 2.12953,-0.0761 1.5211,-1.06477 z" />
            <path
               inkscape:connector-curvature="0"
               id="path4214"
               style="font-style:normal;font-variant:normal;font-weight:300;font-stretch:normal;font-size:76.0546875px;line-height:125%;font-family:Lovelo;-inkscape-font-specification:'Lovelo, Light';text-align:start;writing-mode:lr-tb;text-anchor:start"
               d="M 607.24794,642.35645 H 576.52185 V 588.89 c 0,-0.45633 -0.38027,-0.8366 -0.91266,-0.8366 -0.45632,0 -0.8366,0.38027 -0.8366,0.8366 v 54.3791 c 0,0.45633 0.38028,0.83661 0.8366,0.83661 h 31.63875 c 0.53239,0 0.91266,-0.38028 0.91266,-0.83661 0,-0.53238 -0.38027,-0.91265 -0.91266,-0.91265 z M 585.57236,588.89 v 43.50328 c 0,0.45633 0.45633,0.83661 0.91265,0.83661 h 20.76293 c 0.53239,0 0.91266,-0.38028 0.91266,-0.83661 0,-0.53238 -0.38027,-0.91265 -0.91266,-0.91265 H 587.39767 V 588.89 c 0,-0.45633 -0.45633,-0.8366 -0.91266,-0.8366 -0.45632,0 -0.91265,0.38027 -0.91265,0.8366 z" />
            <path
               inkscape:connector-curvature="0"
               id="path4216"
               style="font-style:normal;font-variant:normal;font-weight:300;font-stretch:normal;font-size:76.0546875px;line-height:125%;font-family:Lovelo;-inkscape-font-specification:'Lovelo, Light';text-align:start;writing-mode:lr-tb;text-anchor:start"
               d="m 628.02218,589.34633 11.02793,18.86156 c 0.38027,0.60844 1.21687,0.60844 1.59715,0 l 11.10398,-18.86156 c 0.22817,-0.45633 0.0761,-0.98871 -0.30422,-1.21687 -0.45632,-0.22817 -0.91265,-0.0761 -1.29293,0.30421 l -10.34343,17.56864 -10.34344,-17.56864 c -0.22817,-0.38027 -0.76055,-0.53238 -1.14082,-0.30421 -0.45633,0.22816 -0.60844,0.76054 -0.30422,1.21687 z m 35.44148,-0.91266 -18.93761,30.04161 c -0.0761,0.22816 -0.0761,0.38027 -0.0761,0.53238 v 24.10933 c 0,0.60844 0.38028,0.98872 0.8366,0.98872 0.45633,0 0.83661,-0.38028 0.83661,-0.98872 v -23.88117 l 18.86156,-29.88949 c 0.22816,-0.38027 0.15211,-0.91266 -0.30422,-1.21687 -0.38027,-0.22817 -0.91266,-0.0761 -1.21688,0.30421 z m -28.14023,54.68332 V 618.9316 c 0,-0.15211 -0.0761,-0.30421 -0.15211,-0.45632 L 616.2337,588.43367 c -0.30422,-0.38027 -0.8366,-0.53238 -1.21687,-0.30421 -0.38028,0.30421 -0.53238,0.8366 -0.22817,1.21687 l 18.70946,29.88949 v 23.88117 c 0,0.60844 0.38027,0.98872 0.91265,0.98872 0.53239,0 0.91266,-0.38028 0.91266,-0.98872 z" />
            <path
               inkscape:connector-curvature="0"
               id="path4218"
               style="font-style:normal;font-variant:normal;font-weight:300;font-stretch:normal;font-size:76.0546875px;line-height:125%;font-family:Lovelo;-inkscape-font-specification:'Lovelo, Light';text-align:start;writing-mode:lr-tb;text-anchor:start"
               d="m 677.95984,640.45508 c 3.04219,1.52109 5.93226,2.50981 8.67023,3.11824 13.84196,3.27035 26.08676,-2.66191 26.08676,-16.42781 0,-13.7659 -16.65598,-16.57992 -20.07844,-19.16578 -1.06476,-0.8366 -1.6732,-2.05348 -1.6732,-3.1943 -0.0761,-2.58586 1.97742,-3.95484 4.25906,-4.25906 3.57457,-0.38027 8.21391,1.06477 10.87582,2.12953 1.06477,0.45633 1.74926,-1.14082 0.68449,-1.59715 -4.41117,-1.82531 -7.83363,-2.5098 -11.48425,-2.28164 -3.49852,0.15211 -6.23649,2.73797 -6.08438,6.23649 0.45633,6.92097 9.88711,5.47593 17.34047,12.47296 6.46465,5.93227 5.32383,15.43911 0.15211,20.68688 -6.76887,6.76887 -19.08973,5.32383 -27.83602,0.76055 -1.06476,-0.53239 -1.90136,0.98871 -0.91265,1.52109 z m 30.19371,-50.3482 c -3.57457,-1.21688 -6.31254,-1.82532 -8.44207,-2.12953 -12.24481,-1.67321 -21.44742,5.39988 -21.44742,17.18836 0,14.14617 16.65597,16.12359 20.23054,19.08972 1.74926,1.59715 2.05348,4.33512 0.22817,6.00832 -3.80274,3.49852 -13.61379,0.68449 -18.40524,-2.66191 -0.91265,-0.60844 -1.97742,0.76055 -0.98871,1.44504 4.8675,3.57457 11.02793,4.79144 15.81938,4.48722 3.57457,-0.22816 6.76886,-2.73796 6.5407,-6.31254 -0.45633,-6.99703 -9.735,-5.7041 -17.18836,-12.16875 -6.5407,-5.85621 -5.32383,-15.51515 -0.45633,-20.76292 6.00832,-6.54071 15.36305,-5.39989 23.5009,-2.58586 1.06477,0.45632 1.6732,-1.21688 0.60844,-1.59715 z" />
            <path
               inkscape:connector-curvature="0"
               id="path4220"
               style="font-style:normal;font-variant:normal;font-weight:300;font-stretch:normal;font-size:76.0546875px;line-height:125%;font-family:Lovelo;-inkscape-font-specification:'Lovelo, Light';text-align:start;writing-mode:lr-tb;text-anchor:start"
               d="M 743.10488,643.2691 V 588.89 c 0,-0.45633 -0.38027,-0.8366 -0.8366,-0.8366 -0.53238,0 -0.91265,0.38027 -0.91265,0.8366 v 54.3791 c 0,0.45633 0.38027,0.83661 0.91265,0.83661 0.45633,0 0.8366,-0.38028 0.8366,-0.83661 z m -10.87582,0 V 588.89 c 0,-0.45633 -0.38027,-0.8366 -0.8366,-0.8366 -0.53238,0 -0.91265,0.38027 -0.91265,0.8366 v 54.3791 c 0,0.45633 0.38027,0.83661 0.91265,0.83661 0.45633,0 0.8366,-0.38028 0.8366,-0.83661 z" />
            <path
               inkscape:connector-curvature="0"
               id="path4222"
               style="font-style:normal;font-variant:normal;font-weight:300;font-stretch:normal;font-size:76.0546875px;line-height:125%;font-family:Lovelo;-inkscape-font-specification:'Lovelo, Light';text-align:start;writing-mode:lr-tb;text-anchor:start"
               d="m 761.81024,640.45508 c 3.04219,1.52109 5.93227,2.50981 8.67024,3.11824 13.84195,3.27035 26.08675,-2.66191 26.08675,-16.42781 0,-13.7659 -16.65597,-16.57992 -20.07843,-19.16578 -1.06477,-0.8366 -1.67321,-2.05348 -1.67321,-3.1943 -0.0761,-2.58586 1.97742,-3.95484 4.25907,-4.25906 3.57457,-0.38027 8.2139,1.06477 10.87582,2.12953 1.06476,0.45633 1.74925,-1.14082 0.68449,-1.59715 -4.41117,-1.82531 -7.83364,-2.5098 -11.48426,-2.28164 -3.49852,0.15211 -6.23648,2.73797 -6.08438,6.23649 0.45633,6.92097 9.88711,5.47593 17.34047,12.47296 6.46465,5.93227 5.32383,15.43911 0.15211,20.68688 -6.76886,6.76887 -19.08972,5.32383 -27.83601,0.76055 -1.06477,-0.53239 -1.90137,0.98871 -0.91266,1.52109 z m 30.19371,-50.3482 c -3.57457,-1.21688 -6.31254,-1.82532 -8.44207,-2.12953 -12.2448,-1.67321 -21.44742,5.39988 -21.44742,17.18836 0,14.14617 16.65598,16.12359 20.23055,19.08972 1.74925,1.59715 2.05347,4.33512 0.22816,6.00832 -3.80273,3.49852 -13.61379,0.68449 -18.40523,-2.66191 -0.91266,-0.60844 -1.97743,0.76055 -0.98871,1.44504 4.8675,3.57457 11.02793,4.79144 15.81937,4.48722 3.57457,-0.22816 6.76887,-2.73796 6.5407,-6.31254 -0.45632,-6.99703 -9.735,-5.7041 -17.18836,-12.16875 -6.5407,-5.85621 -5.32382,-15.51515 -0.45632,-20.76292 6.00832,-6.54071 15.36304,-5.39989 23.50089,-2.58586 1.06477,0.45632 1.67321,-1.21688 0.60844,-1.59715 z" />
          </g>
          <path
             sodipodi:nodetypes="ccccccccsccccccsccccsc"
             inkscape:connector-curvature="0"
             id="path4208-2"
             style="font-style:normal;font-variant:normal;font-weight:300;font-stretch:normal;font-size:76.0546875px;line-height:125%;font-family:Lovelo;-inkscape-font-specification:'Lovelo, Light';text-align:start;letter-spacing:8.57698917px;word-spacing:0px;writing-mode:lr-tb;text-anchor:start;fill:#000000;fill-opacity:1;stroke:none;stroke-width:1px;stroke-linecap:butt;stroke-linejoin:miter;stroke-opacity:1"
             d="m 538.8896,626.17565 -3.62783,-8.86298 c -0.22817,-0.53238 -0.6845,-0.76055 -1.21688,-0.53238 -0.38027,0.15211 -0.60844,0.68449 -0.45633,1.14082 l 3.57457,8.67023 c 3.18542,5.53317 5.41059,10.67998 1.72647,-0.41569 z m -1.72198,0.42833 6.91653,17.02361 c 0.22816,0.53238 0.68449,0.68449 1.14082,0.53238 0.45633,-0.15211 0.68449,-0.76054 0.53238,-1.14082 l -6.8821,-16.82602 c -1.89595,-3.67937 -2.60237,-4.39624 -1.70763,0.41085 z m -24.26589,17.02361 21.52348,-52.7059 21.52347,52.7059 c 0.15211,0.53238 0.68449,0.68449 1.14082,0.53238 0.45633,-0.15211 0.60844,-0.76054 0.45633,-1.14082 l -22.28402,-54.68332 c -0.30422,-0.76054 -1.36899,-0.8366 -1.67321,0 l -22.28402,54.68332 c -0.22816,0.38028 0,0.98871 0.45633,1.14082 0.45633,0.15211 0.98871,0 1.14082,-0.53238 z" />
        </g>
        <circle
           style="fill:#ffb546;fill-opacity:1;fill-rule:evenodd;stroke:none;stroke-width:1px;stroke-linecap:butt;stroke-linejoin:miter;stroke-opacity:1"
           id="path4175"
           cx="182.39667"
           cy="582.8634"
           r="4.9580364"
           inkscape:export-filename="/home/casado/Downloads/cyto_logo_text.png"
           inkscape:export-xdpi="200"
           inkscape:export-ydpi="200" />
        <text
           xml:space="preserve"
           style="font-style:normal;font-weight:normal;font-size:133.40248108px;line-height:125%;font-family:sans-serif;letter-spacing:0px;word-spacing:0px;fill:#000000;fill-opacity:1;stroke:none;stroke-width:1px;stroke-linecap:butt;stroke-linejoin:miter;stroke-opacity:1"
           x="-192.31863"
           y="612.54791"
           id="text899"><tspan
             sodipodi:role="line"
             id="tspan897"
             x="-192.31863"
             y="612.54791"
             style="font-style:normal;font-variant:normal;font-weight:900;font-stretch:normal;font-size:80.04148865px;font-family:Lovelo;-inkscape-font-specification:'Lovelo, Heavy';font-variant-ligatures:normal;font-variant-caps:normal;font-variant-numeric:normal;font-feature-settings:normal;text-align:start;letter-spacing:8.90999985px;writing-mode:lr-tb;text-anchor:start;stroke-width:0.24908137px"
             dx="0">SINGLE CELL ANALYSIS</tspan></text>
      </g>
    </g>
  </g>
</svg>
