<?xml version="1.0" encoding="UTF-8" standalone="no"?>
<svg
   xmlns:dc="http://purl.org/dc/elements/1.1/"
   xmlns:cc="http://creativecommons.org/ns#"
   xmlns:rdf="http://www.w3.org/1999/02/22-rdf-syntax-ns#"
   xmlns:svg="http://www.w3.org/2000/svg"
   xmlns="http://www.w3.org/2000/svg"
   version="1.1"
   id="svg2"
   viewBox="0 0 278 278.06001"
   height="24"
   width="24">
  <g
     transform="translate(-33.35046,-11.276568)"
     id="layer1">
    <g
       id="g4177">
      <path
         id="path4175-9-8-8-5"
         d="m 227.32583,73.30324 c -10.64465,-4.83794 -22.46625,-7.52438 -34.90795,-7.52438 -46.64803,0 -84.54639,37.89039 -84.54639,84.52771 0,46.63731 37.89836,84.52771 84.54639,84.52771 12.44152,0 24.26342,-2.68596 34.90795,-7.52439 l -15.85509,-16.88612 c -6.40332,2.03693 -14.58003,2.99154 -21.66437,2.99154 -36.92469,0 -60.7934,-24.62666 -60.51596,-61.54183 0.34811,-46.31208 19.43002,-65.63897 56.33752,-66.76488 7.90329,-0.24114 19.25124,1.52647 25.70343,3.10346 z"
         style="color:#000000;font-style:normal;font-variant:normal;font-weight:normal;font-stretch:normal;font-size:medium;line-height:normal;font-family:Sans;-inkscape-font-specification:Sans;text-indent:0;text-align:start;text-decoration:none;text-decoration-line:none;letter-spacing:normal;word-spacing:normal;text-transform:none;writing-mode:lr-tb;direction:ltr;baseline-shift:baseline;text-anchor:start;display:inline;overflow:visible;visibility:visible;fill:#000000;fill-opacity:1;stroke:none;stroke-width:23.95825005;marker:none;enable-background:accumulate" />
      <path
         id="path4175-9-2"
         d="m 268.01741,264.55748 -22.01164,-20.15865 c -15.79351,8.99746 -34.08486,14.13165 -53.58789,14.13165 -59.85789,0 -108.7111,-48.38147 -108.26134,-108.22391 0.56428,-75.07564 48.4313,-106.41734 108.26134,-108.2426 22.44307,-0.68473 41.2373,3.50718 56.52652,11.34267 l 18.96071,-17.4446 C 246.24704,21.63135 220.29762,13.27657 192.41788,13.27657 c -75.62014,0 -137.06742,61.40853 -137.06742,137.01125 0,75.60284 61.44728,137.04874 137.06742,137.04874 27.92789,0 53.91893,-8.40114 75.59953,-22.77908 z"
         style="color:#000000;font-style:normal;font-variant:normal;font-weight:normal;font-stretch:normal;font-size:medium;line-height:normal;font-family:Sans;-inkscape-font-specification:Sans;text-indent:0;text-align:start;text-decoration:none;text-decoration-line:none;letter-spacing:normal;word-spacing:normal;text-transform:none;writing-mode:lr-tb;direction:ltr;baseline-shift:baseline;text-anchor:start;display:inline;overflow:visible;visibility:visible;fill:#000000;fill-opacity:1;fill-rule:nonzero;stroke:none;stroke-width:23.95825005;marker:none;enable-background:accumulate" />
      <circle
         style="fill:#000000;fill-opacity:1;fill-rule:evenodd;stroke:none;stroke-width:0.59895623px;stroke-linecap:butt;stroke-linejoin:miter;stroke-opacity:1"
         id="path4163-7"
         cx="187.0007"
         cy="150.30656"
         r="22.898161" />
    </g>
  </g>
</svg>
